[
    {
    "nombre": "Andros Fenollosa",
    "bio": "Desarrollador Fullstack, Project Manager en Sapps estudio, docente en Idecrea y escritor. Compagina su actividad profesional con la enseñanza de tecnologías web. Además forma parte del Podcast República Web, es bloguero, enamorado de la programación funcional y donante de código en diversos proyectos Opensource.",
    "web": "https://programadorwebvalencia.com",
    "pic": "andros.jpeg"
    },

    {
    "nombre": "Antonio González Viegas",
    "bio": "Arquitecto por la E.T.S.A. Sevilla y desarrollador. Ha trabajado dos años en el sector de software BIM, y es uno de los autores de la librería open-source IFC.js.",
    "web": "https://github.com/agviegas",
    "pic": "viegas.jpeg"
    },
    {
    "nombre": "Guillermo Rodas",
    "bio": "Ingeniero Full-stack de JavaScript, nacido en Colombia pero vivo en Suecia. - Google Developer Expert in Web Technologies, Community Organizer, and Online Teacher. Escribo sobre programación en mi blog y pinto al oleo en mi tiempo libre.",
    "web": "https://guillermorodas.com/",
    "pic": "rodas.jpeg"
    },
    {
        "nombre": "Antony Goetzschel",
        "bio": "Cloud Arquitecto y DevOps Engineer, Fundador de CCSolutions.io, apasionado por la tecnología y creyente del OpenSource. Fan de la cultura ágil, y sus metodologías, aprendiz de Golang, AI, ML y Data Science con Python. También colaborador habitual del podcast República Web.",
        "web": "https://ccsolutions.io/",
        "pic": "antony.jpeg"
    },
    {
        "nombre": "David Vaquero",
        "bio": "Formador en IT y tecnologías web. Colaborador en la organización de los congresos de Hispalinux, conferenciante, militante del software libre, defensor de la cultura libre y el acceso a la información veraz. Colabora en los podcast República Web y Formadores en tiempos revueltos.",
        "web": "https://cursosdedesarrollo.com",
        "pic": "vaquero.jpeg"
    },
    {
        "nombre": "Javier Archeni",
        "bio": "Desarrollador independiente de sitios web, especializado en contenidos y medios digitales. Como apasionado de internet y la web, creó en el 2016 el podcast República Web, labor que combina con su trabajo como desarrollador y consultor digital para empresas y profesionales. ",
        "web": "https://javierarcheni.com",
        "pic": "archeni.jpeg"
    },
    {
        "nombre": "Marcos Costales",
        "bio": "Desarrollador de software libre y administrador de sistemas. Involucrado con la comunidad de Ubuntu.",
        "web": "https://costales.github.io/",
        "pic": "costales.jpeg"
    },
    {
        "nombre": "Aitor Roma",
        "bio": "Soy Administrador de Sistemas con evolución natural hacia Arquitecto del Cloud Computing. Más de 20 años al servicio del Software Libre, empecé como blogger hace ya unos años y a día de hoy tengo un canal en Telegram sobre la temática. @aitorroma mi Membership HiveAgile.com Soy también fundador de la comunidad de N8N en Español y administre junto a Emilio Casbas la comunidad de Administradores de sistemas House Of Sysadmins.",
        "web": "https://linkwall.me/aitorroma",
        "pic": "aitor.jpeg"
    },
    {
        "nombre": "Fernando La Chica",
        "bio": "Padre y Programador autodidacta a partes iguales. Certificado profesional Odoo v12. Investigando Blockchain.Mi meta es el horizonte y por eso estoy que no paro.",
        "web": "https://flachica.github.io/fernandolachica/",
        "pic": "lachica.jpeg"
    },
    {
        "nombre": "Raúl González",
        "bio": "Especialista en optimizar WordPress. Te ayudo a aumentar tus visitas y conversiones con una web rápida.",
        "web": "https://ragose.com/",
        "pic": "ragose.jpeg"
    },
    {
        "nombre": "Chabi Angulo",
        "bio": "Creo páginas web, mantenimiento, optimización, consultoría, creación de tiendas online. Todo con WordPress. Tengo los servicios de consultoría de páginas web donde te asesoro en cuanto las funcionalidades y diseños para tu proyecto.",
        "web": "https://paginaswebzaragoza.com/",
        "pic": "angulo.jpeg"
    }





]



